%YAML 1.1
%TAG !u! tag:unity3d.com,2011:
--- !u!1 &345501918836450246
GameObject:
  m_ObjectHideFlags: 0
  m_CorrespondingSourceObject: {fileID: 0}
  m_PrefabInstance: {fileID: 0}
  m_PrefabAsset: {fileID: 0}
  serializedVersion: 6
  m_Component:
  - component: {fileID: 345501918836450264}
  - component: {fileID: 345501918836450265}
  - component: {fileID: 345501918836450266}
  - component: {fileID: 345501918836450267}
  - component: {fileID: 345501918836450244}
  - component: {fileID: 345501918836450245}
  m_Layer: 0
  m_Name: Cylinder (1)
  m_TagString: Untagged
  m_Icon: {fileID: 0}
  m_NavMeshLayer: 0
  m_StaticEditorFlags: 127
  m_IsActive: 1
--- !u!4 &345501918836450264
Transform:
  m_ObjectHideFlags: 0
  m_CorrespondingSourceObject: {fileID: 0}
  m_PrefabInstance: {fileID: 0}
  m_PrefabAsset: {fileID: 0}
  m_GameObject: {fileID: 345501918836450246}
  m_LocalRotation: {x: -0, y: -0, z: -0, w: 1}
  m_LocalPosition: {x: -11.695585, y: 1.1508242, z: -4.0011215}
  m_LocalScale: {x: 0.15659666, y: 0.06540304, z: 0.15659666}
  m_Children: []
  m_Father: {fileID: 345501919793503439}
  m_RootOrder: 1
  m_LocalEulerAnglesHint: {x: 0, y: 0, z: 0}
--- !u!33 &345501918836450265
MeshFilter:
  m_ObjectHideFlags: 0
  m_CorrespondingSourceObject: {fileID: 0}
  m_PrefabInstance: {fileID: 0}
  m_PrefabAsset: {fileID: 0}
  m_GameObject: {fileID: 345501918836450246}
  m_Mesh: {fileID: 0}
--- !u!23 &345501918836450266
MeshRenderer:
  m_ObjectHideFlags: 0
  m_CorrespondingSourceObject: {fileID: 0}
  m_PrefabInstance: {fileID: 0}
  m_PrefabAsset: {fileID: 0}
  m_GameObject: {fileID: 345501918836450246}
  m_Enabled: 1
  m_CastShadows: 2
  m_ReceiveShadows: 1
  m_DynamicOccludee: 1
  m_MotionVectors: 1
  m_LightProbeUsage: 1
  m_ReflectionProbeUsage: 1
  m_RenderingLayerMask: 1
  m_RendererPriority: 0
  m_Materials:
  - {fileID: 2100000, guid: 857286e56ca500a46975599107a65726, type: 2}
  m_StaticBatchInfo:
    firstSubMesh: 0
    subMeshCount: 0
  m_StaticBatchRoot: {fileID: 0}
  m_ProbeAnchor: {fileID: 0}
  m_LightProbeVolumeOverride: {fileID: 0}
  m_ScaleInLightmap: 1
  m_PreserveUVs: 0
  m_IgnoreNormalsForChartDetection: 0
  m_ImportantGI: 0
  m_StitchLightmapSeams: 0
  m_SelectedEditorRenderState: 2
  m_MinimumChartSize: 4
  m_AutoUVMaxDistance: 0.5
  m_AutoUVMaxAngle: 89
  m_LightmapParameters: {fileID: 0}
  m_SortingLayerID: 0
  m_SortingLayer: 0
  m_SortingOrder: 0
--- !u!114 &345501918836450267
MonoBehaviour:
  m_ObjectHideFlags: 0
  m_CorrespondingSourceObject: {fileID: 0}
  m_PrefabInstance: {fileID: 0}
  m_PrefabAsset: {fileID: 0}
  m_GameObject: {fileID: 345501918836450246}
  m_Enabled: 1
  m_EditorHideFlags: 0
  m_Script: {fileID: 16342205, guid: 0472bdc8d6d15384d98f22ee34302f9c, type: 3}
  m_Name: 
  m_EditorClassIdentifier: 
  _entityType: 0
--- !u!114 &345501918836450244
MonoBehaviour:
  m_ObjectHideFlags: 0
  m_CorrespondingSourceObject: {fileID: 0}
  m_PrefabInstance: {fileID: 0}
  m_PrefabAsset: {fileID: 0}
  m_GameObject: {fileID: 345501918836450246}
  m_Enabled: 1
  m_EditorHideFlags: 0
  m_Script: {fileID: 185759285, guid: 0472bdc8d6d15384d98f22ee34302f9c, type: 3}
  m_Name: 
  m_EditorClassIdentifier: 
  _quads:
  - _indices: 000000000100000002000000010000000300000002000000
    _distinctIndices: 00000000010000000200000003000000
    _edges:
    - x: 0
      y: 1
    - x: 2
      y: 0
    - x: 1
      y: 3
    - x: 3
      y: 2
    _smoothingGroup: 1
    _uv:
      useWorldSpace: 0
      flipU: 0
      flipV: 0
      swapUV: 0
      fill: 1
      scale: {x: 1, y: 1}
      offset: {x: 0, y: 0}
      rotation: 0
      justify: 0
      localPivot: {x: 0.000000014901161, y: 1.1067}
      localSize: {x: 0, y: 0}
      anchor: 9
    _mat: {fileID: 2100000, guid: 857286e56ca500a46975599107a65726, type: 2}
    manualUV: 0
    elementGroup: -1
    textureGroup: -1
  - _indices: 040000000500000006000000050000000700000006000000
    _distinctIndices: 04000000050000000600000007000000
    _edges:
    - x: 4
      y: 5
    - x: 6
      y: 4
    - x: 5
      y: 7
    - x: 7
      y: 6
    _smoothingGroup: 1
    _uv:
      useWorldSpace: 0
      flipU: 0
      flipV: 0
      swapUV: 0
      fill: 1
      scale: {x: 1, y: 1}
      offset: {x: 0, y: 0}
      rotation: 0
      justify: 0
      localPivot: {x: -0.000000029802322, y: 1.1067}
      localSize: {x: 0, y: 0}
      anchor: 9
    _mat: {fileID: 2100000, guid: 857286e56ca500a46975599107a65726, type: 2}
    manualUV: 0
    elementGroup: -1
    textureGroup: -1
  - _indices: 08000000090000000a000000090000000b0000000a000000
    _distinctIndices: 08000000090000000a0000000b000000
    _edges:
    - x: 8
      y: 9
    - x: 10
      y: 8
    - x: 9
      y: 11
    - x: 11
      y: 10
    _smoothingGroup: 1
    _uv:
      useWorldSpace: 0
      flipU: 0
      flipV: 0
      swapUV: 0
      fill: 1
      scale: {x: 1, y: 1}
      offset: {x: 0, y: 0}
      rotation: 0
      justify: 0
      localPivot: {x: 0.000000014901161, y: 1.1067}
      localSize: {x: 0, y: 0}
      anchor: 9
    _mat: {fileID: 2100000, guid: 857286e56ca500a46975599107a65726, type: 2}
    manualUV: 0
    elementGroup: -1
    textureGroup: -1
  - _indices: 0c0000000d0000000e0000000d0000000f0000000e000000
    _distinctIndices: 0c0000000d0000000e0000000f000000
    _edges:
    - x: 12
      y: 13
    - x: 14
      y: 12
    - x: 13
      y: 15
    - x: 15
      y: 14
    _smoothingGroup: 1
    _uv:
      useWorldSpace: 0
      flipU: 0
      flipV: 0
      swapUV: 0
      fill: 1
      scale: {x: 1, y: 1}
      offset: {x: 0, y: 0}
      rotation: 0
      justify: 0
      localPivot: {x: -0.000000044703484, y: 1.1067}
      localSize: {x: 0, y: 0}
      anchor: 9
    _mat: {fileID: 2100000, guid: 857286e56ca500a46975599107a65726, type: 2}
    manualUV: 0
    elementGroup: -1
    textureGroup: -1
  - _indices: 100000001100000012000000110000001300000012000000
    _distinctIndices: 10000000110000001200000013000000
    _edges:
    - x: 16
      y: 17
    - x: 18
      y: 16
    - x: 17
      y: 19
    - x: 19
      y: 18
    _smoothingGroup: 1
    _uv:
      useWorldSpace: 0
      flipU: 0
      flipV: 0
      swapUV: 0
      fill: 1
      scale: {x: 1, y: 1}
      offset: {x: 0, y: 0}
      rotation: 0
      justify: 0
      localPivot: {x: -0.000000029802322, y: 1.1067}
      localSize: {x: 0, y: 0}
      anchor: 9
    _mat: {fileID: 2100000, guid: 857286e56ca500a46975599107a65726, type: 2}
    manualUV: 0
    elementGroup: -1
    textureGroup: -1
  - _indices: 140000001500000016000000150000001700000016000000
    _distinctIndices: 14000000150000001600000017000000
    _edges:
    - x: 20
      y: 21
    - x: 22
      y: 20
    - x: 21
      y: 23
    - x: 23
      y: 22
    _smoothingGroup: 1
    _uv:
      useWorldSpace: 0
      flipU: 0
      flipV: 0
      swapUV: 0
      fill: 1
      scale: {x: 1, y: 1}
      offset: {x: 0, y: 0}
      rotation: 0
      justify: 0
      localPivot: {x: -0.000000029802322, y: 1.1067}
      localSize: {x: 0, y: 0}
      anchor: 9
    _mat: {fileID: 2100000, guid: 857286e56ca500a46975599107a65726, type: 2}
    manualUV: 0
    elementGroup: -1
    textureGroup: -1
  - _indices: 18000000190000001a000000190000001b0000001a000000
    _distinctIndices: 18000000190000001a0000001b000000
    _edges:
    - x: 24
      y: 25
    - x: 26
      y: 24
    - x: 25
      y: 27
    - x: 27
      y: 26
    _smoothingGroup: 1
    _uv:
      useWorldSpace: 0
      flipU: 0
      flipV: 0
      swapUV: 0
      fill: 1
      scale: {x: 1, y: 1}
      offset: {x: 0, y: 0}
      rotation: 0
      justify: 0
      localPivot: {x: -0.000000044703484, y: 1.1067}
      localSize: {x: 0, y: 0}
      anchor: 9
    _mat: {fileID: 2100000, guid: 857286e56ca500a46975599107a65726, type: 2}
    manualUV: 0
    elementGroup: -1
    textureGroup: -1
  - _indices: 1c0000001d0000001e0000001d0000001f0000001e000000
    _distinctIndices: 1c0000001d0000001e0000001f000000
    _edges:
    - x: 28
      y: 29
    - x: 30
      y: 28
    - x: 29
      y: 31
    - x: 31
      y: 30
    _smoothingGroup: 1
    _uv:
      useWorldSpace: 0
      flipU: 0
      flipV: 0
      swapUV: 0
      fill: 1
      scale: {x: 1, y: 1}
      offset: {x: 0, y: 0}
      rotation: 0
      justify: 0
      localPivot: {x: 0.000000029802322, y: 1.1067}
      localSize: {x: 0, y: 0}
      anchor: 9
    _mat: {fileID: 2100000, guid: 857286e56ca500a46975599107a65726, type: 2}
    manualUV: 0
    elementGroup: -1
    textureGroup: -1
  - _indices: 220000002100000020000000
    _distinctIndices: 220000002100000020000000
    _edges:
    - x: 34
      y: 33
    - x: 33
      y: 32
    - x: 32
      y: 34
    _smoothingGroup: 0
    _uv:
      useWorldSpace: 0
      flipU: 0
      flipV: 0
      swapUV: 0
      fill: 1
      scale: {x: 1, y: 1}
      offset: {x: 0, y: 0}
      rotation: 0
      justify: 0
      localPivot: {x: -0.55335, y: 0.39127752}
      localSize: {x: 0, y: 0}
      anchor: 9
    _mat: {fileID: 2100000, guid: 857286e56ca500a46975599107a65726, type: 2}
    manualUV: 0
    elementGroup: 0
    textureGroup: -1
  - _indices: 280000002700000026000000
    _distinctIndices: 280000002700000026000000
    _edges:
    - x: 40
      y: 39
    - x: 39
      y: 38
    - x: 38
      y: 40
    _smoothingGroup: 0
    _uv:
      useWorldSpace: 0
      flipU: 0
      flipV: 0
      swapUV: 0
      fill: 1
      scale: {x: 1, y: 1}
      offset: {x: 0, y: 0}
      rotation: 0
      justify: 0
      localPivot: {x: -0.3912775, y: 0.55335}
      localSize: {x: 0, y: 0}
      anchor: 9
    _mat: {fileID: 2100000, guid: 857286e56ca500a46975599107a65726, type: 2}
    manualUV: 0
    elementGroup: 0
    textureGroup: -1
  - _indices: 2e0000002d0000002c000000
    _distinctIndices: 2e0000002d0000002c000000
    _edges:
    - x: 46
      y: 45
    - x: 45
      y: 44
    - x: 44
      y: 46
    _smoothingGroup: 0
    _uv:
      useWorldSpace: 0
      flipU: 0
      flipV: 0
      swapUV: 0
      fill: 1
      scale: {x: 1, y: 1}
      offset: {x: 0, y: 0}
      rotation: 0
      justify: 0
      localPivot: {x: 0.39127752, y: 0.55335}
      localSize: {x: 0, y: 0}
      anchor: 9
    _mat: {fileID: 2100000, guid: 857286e56ca500a46975599107a65726, type: 2}
    manualUV: 0
    elementGroup: 0
    textureGroup: -1
  - _indices: 340000003300000032000000
    _distinctIndices: 340000003300000032000000
    _edges:
    - x: 52
      y: 51
    - x: 51
      y: 50
    - x: 50
      y: 52
    _smoothingGroup: 0
    _uv:
      useWorldSpace: 0
      flipU: 0
      flipV: 0
      swapUV: 0
      fill: 1
      scale: {x: 1, y: 1}
      offset: {x: 0, y: 0}
      rotation: 0
      justify: 0
      localPivot: {x: 0.55335, y: 0.39127746}
      localSize: {x: 0, y: 0}
      anchor: 9
    _mat: {fileID: 2100000, guid: 857286e56ca500a46975599107a65726, type: 2}
    manualUV: 0
    elementGroup: 0
    textureGroup: -1
  - _indices: 3a0000003900000038000000
    _distinctIndices: 3a0000003900000038000000
    _edges:
    - x: 58
      y: 57
    - x: 57
      y: 56
    - x: 56
      y: 58
    _smoothingGroup: 0
    _uv:
      useWorldSpace: 0
      flipU: 0
      flipV: 0
      swapUV: 0
      fill: 1
      scale: {x: 1, y: 1}
      offset: {x: 0, y: 0}
      rotation: 0
      justify: 0
      localPivot: {x: 0.55335, y: -0.3912775}
      localSize: {x: 0, y: 0}
      anchor: 9
    _mat: {fileID: 2100000, guid: 857286e56ca500a46975599107a65726, type: 2}
    manualUV: 0
    elementGroup: 0
    textureGroup: -1
  - _indices: 400000003f0000003e000000
    _distinctIndices: 400000003f0000003e000000
    _edges:
    - x: 64
      y: 63
    - x: 63
      y: 62
    - x: 62
      y: 64
    _smoothingGroup: 0
    _uv:
      useWorldSpace: 0
      flipU: 0
      flipV: 0
      swapUV: 0
      fill: 1
      scale: {x: 1, y: 1}
      offset: {x: 0, y: 0}
      rotation: 0
      justify: 0
      localPivot: {x: 0.39127755, y: -0.55335}
      localSize: {x: 0, y: 0}
      anchor: 9
    _mat: {fileID: 2100000, guid: 857286e56ca500a46975599107a65726, type: 2}
    manualUV: 0
    elementGroup: 0
    textureGroup: -1
  - _indices: 460000004500000044000000
    _distinctIndices: 460000004500000044000000
    _edges:
    - x: 70
      y: 69
    - x: 69
      y: 68
    - x: 68
      y: 70
    _smoothingGroup: 0
    _uv:
      useWorldSpace: 0
      flipU: 0
      flipV: 0
      swapUV: 0
      fill: 1
      scale: {x: 1, y: 1}
      offset: {x: 0, y: 0}
      rotation: 0
      justify: 0
      localPivot: {x: -0.39127743, y: -0.55335}
      localSize: {x: 0, y: 0}
      anchor: 9
    _mat: {fileID: 2100000, guid: 857286e56ca500a46975599107a65726, type: 2}
    manualUV: 0
    elementGroup: 0
    textureGroup: -1
  - _indices: 4c0000004b0000004a000000
    _distinctIndices: 4c0000004b0000004a000000
    _edges:
    - x: 76
      y: 75
    - x: 75
      y: 74
    - x: 74
      y: 76
    _smoothingGroup: 0
    _uv:
      useWorldSpace: 0
      flipU: 0
      flipV: 0
      swapUV: 0
      fill: 1
      scale: {x: 1, y: 1}
      offset: {x: 0, y: 0}
      rotation: 0
      justify: 0
      localPivot: {x: -0.55335, y: -0.39127758}
      localSize: {x: 0, y: 0}
      anchor: 9
    _mat: {fileID: 2100000, guid: 857286e56ca500a46975599107a65726, type: 2}
    manualUV: 0
    elementGroup: 0
    textureGroup: -1
  - _indices: 230000002400000025000000
    _distinctIndices: 230000002400000025000000
    _edges:
    - x: 35
      y: 36
    - x: 36
      y: 37
    - x: 37
      y: 35
    _smoothingGroup: 0
    _uv:
      useWorldSpace: 0
      flipU: 0
      flipV: 0
      swapUV: 0
      fill: 1
      scale: {x: 1, y: 1}
      offset: {x: 0, y: 0}
      rotation: 0
      justify: 0
      localPivot: {x: 0.55335, y: 0.39127752}
      localSize: {x: 0, y: 0}
      anchor: 9
    _mat: {fileID: 2100000, guid: 857286e56ca500a46975599107a65726, type: 2}
    manualUV: 0
    elementGroup: 0
    textureGroup: -1
  - _indices: 290000002a0000002b000000
    _distinctIndices: 290000002a0000002b000000
    _edges:
    - x: 41
      y: 42
    - x: 42
      y: 43
    - x: 43
      y: 41
    _smoothingGroup: 0
    _uv:
      useWorldSpace: 0
      flipU: 0
      flipV: 0
      swapUV: 0
      fill: 1
      scale: {x: 1, y: 1}
      offset: {x: 0, y: 0}
      rotation: 0
      justify: 0
      localPivot: {x: 0.3912775, y: 0.55335}
      localSize: {x: 0, y: 0}
      anchor: 9
    _mat: {fileID: 2100000, guid: 857286e56ca500a46975599107a65726, type: 2}
    manualUV: 0
    elementGroup: 0
    textureGroup: -1
  - _indices: 2f0000003000000031000000
    _distinctIndices: 2f0000003000000031000000
    _edges:
    - x: 47
      y: 48
    - x: 48
      y: 49
    - x: 49
      y: 47
    _smoothingGroup: 0
    _uv:
      useWorldSpace: 0
      flipU: 0
      flipV: 0
      swapUV: 0
      fill: 1
      scale: {x: 1, y: 1}
      offset: {x: 0, y: 0}
      rotation: 0
      justify: 0
      localPivot: {x: -0.39127752, y: 0.55335}
      localSize: {x: 0, y: 0}
      anchor: 9
    _mat: {fileID: 2100000, guid: 857286e56ca500a46975599107a65726, type: 2}
    manualUV: 0
    elementGroup: 0
    textureGroup: -1
  - _indices: 350000003600000037000000
    _distinctIndices: 350000003600000037000000
    _edges:
    - x: 53
      y: 54
    - x: 54
      y: 55
    - x: 55
      y: 53
    _smoothingGroup: 0
    _uv:
      useWorldSpace: 0
      flipU: 0
      flipV: 0
      swapUV: 0
      fill: 1
      scale: {x: 1, y: 1}
      offset: {x: 0, y: 0}
      rotation: 0
      justify: 0
      localPivot: {x: -0.55335, y: 0.39127746}
      localSize: {x: 0, y: 0}
      anchor: 9
    _mat: {fileID: 2100000, guid: 857286e56ca500a46975599107a65726, type: 2}
    manualUV: 0
    elementGroup: 0
    textureGroup: -1
  - _indices: 3b0000003c0000003d000000
    _distinctIndices: 3b0000003c0000003d000000
    _edges:
    - x: 59
      y: 60
    - x: 60
      y: 61
    - x: 61
      y: 59
    _smoothingGroup: 0
    _uv:
      useWorldSpace: 0
      flipU: 0
      flipV: 0
      swapUV: 0
      fill: 1
      scale: {x: 1, y: 1}
      offset: {x: 0, y: 0}
      rotation: 0
      justify: 0
      localPivot: {x: -0.55335, y: -0.3912775}
      localSize: {x: 0, y: 0}
      anchor: 9
    _mat: {fileID: 2100000, guid: 857286e56ca500a46975599107a65726, type: 2}
    manualUV: 0
    elementGroup: 0
    textureGroup: -1
  - _indices: 410000004200000043000000
    _distinctIndices: 410000004200000043000000
    _edges:
    - x: 65
      y: 66
    - x: 66
      y: 67
    - x: 67
      y: 65
    _smoothingGroup: 0
    _uv:
      useWorldSpace: 0
      flipU: 0
      flipV: 0
      swapUV: 0
      fill: 1
      scale: {x: 1, y: 1}
      offset: {x: 0, y: 0}
      rotation: 0
      justify: 0
      localPivot: {x: -0.39127755, y: -0.55335}
      localSize: {x: 0, y: 0}
      anchor: 9
    _mat: {fileID: 2100000, guid: 857286e56ca500a46975599107a65726, type: 2}
    manualUV: 0
    elementGroup: 0
    textureGroup: -1
  - _indices: 470000004800000049000000
    _distinctIndices: 470000004800000049000000
    _edges:
    - x: 71
      y: 72
    - x: 72
      y: 73
    - x: 73
      y: 71
    _smoothingGroup: 0
    _uv:
      useWorldSpace: 0
      flipU: 0
      flipV: 0
      swapUV: 0
      fill: 1
      scale: {x: 1, y: 1}
      offset: {x: 0, y: 0}
      rotation: 0
      justify: 0
      localPivot: {x: 0.39127743, y: -0.55335}
      localSize: {x: 0, y: 0}
      anchor: 9
    _mat: {fileID: 2100000, guid: 857286e56ca500a46975599107a65726, type: 2}
    manualUV: 0
    elementGroup: 0
    textureGroup: -1
  - _indices: 4d0000004e0000004f000000
    _distinctIndices: 4d0000004e0000004f000000
    _edges:
    - x: 77
      y: 78
    - x: 78
      y: 79
    - x: 79
      y: 77
    _smoothingGroup: 0
    _uv:
      useWorldSpace: 0
      flipU: 0
      flipV: 0
      swapUV: 0
      fill: 1
      scale: {x: 1, y: 1}
      offset: {x: 0, y: 0}
      rotation: 0
      justify: 0
      localPivot: {x: 0.55335, y: -0.39127758}
      localSize: {x: 0, y: 0}
      anchor: 9
    _mat: {fileID: 2100000, guid: 857286e56ca500a46975599107a65726, type: 2}
    manualUV: 0
    elementGroup: 0
    textureGroup: -1
  _sharedIndices:
  - array: 000000001e000000200000004c000000
  - array: 010000001f000000230000004f000000
  - array: 02000000040000002200000026000000
  - array: 03000000050000002500000029000000
  - array: 0600000008000000280000002c000000
  - array: 07000000090000002b0000002f000000
  - array: 0a0000000c0000002e00000032000000
  - array: 0b0000000d0000003100000035000000
  - array: 0e000000100000003400000038000000
  - array: 0f00000011000000370000003b000000
  - array: 12000000140000003a0000003e000000
  - array: 13000000150000003d00000041000000
  - array: 16000000180000004000000044000000
  - array: 17000000190000004300000047000000
  - array: 1a0000001c000000460000004a000000
  - array: 1b0000001d000000490000004d000000
  - array: 21000000270000002d00000033000000390000003f000000450000004b000000
  - array: 240000002a00000030000000360000003c00000042000000480000004e000000
  _vertices:
  - {x: 1.1067, y: 0, z: 0}
  - {x: 1.1067, y: 2.2134, z: 0}
  - {x: 0.78255504, y: 0, z: 0.78255504}
  - {x: 0.78255504, y: 2.2134, z: 0.78255504}
  - {x: 0.78255504, y: 0, z: 0.78255504}
  - {x: 0.78255504, y: 2.2134, z: 0.78255504}
  - {x: -0.00000004837539, y: 0, z: 1.1067}
  - {x: -0.00000004837539, y: 2.2134, z: 1.1067}
  - {x: -0.00000004837539, y: 0, z: 1.1067}
  - {x: -0.00000004837539, y: 2.2134, z: 1.1067}
  - {x: -0.78255504, y: 0, z: 0.78255504}
  - {x: -0.78255504, y: 2.2134, z: 0.78255504}
  - {x: -0.78255504, y: 0, z: 0.78255504}
  - {x: -0.78255504, y: 2.2134, z: 0.78255504}
  - {x: -1.1067, y: 0, z: -0.00000009675078}
  - {x: -1.1067, y: 2.2134, z: -0.00000009675078}
  - {x: -1.1067, y: 0, z: -0.00000009675078}
  - {x: -1.1067, y: 2.2134, z: -0.00000009675078}
  - {x: -0.7825551, y: 0, z: -0.782555}
  - {x: -0.7825551, y: 2.2134, z: -0.782555}
  - {x: -0.7825551, y: 0, z: -0.782555}
  - {x: -0.7825551, y: 2.2134, z: -0.782555}
  - {x: 0.000000013197265, y: 0, z: -1.1067}
  - {x: 0.000000013197265, y: 2.2134, z: -1.1067}
  - {x: 0.000000013197265, y: 0, z: -1.1067}
  - {x: 0.000000013197265, y: 2.2134, z: -1.1067}
  - {x: 0.78255486, y: 0, z: -0.78255516}
  - {x: 0.78255486, y: 2.2134, z: -0.78255516}
  - {x: 0.78255486, y: 0, z: -0.78255516}
  - {x: 0.78255486, y: 2.2134, z: -0.78255516}
  - {x: 1.1067, y: 0, z: 0}
  - {x: 1.1067, y: 2.2134, z: 0}
  - {x: 1.1067, y: 0, z: 0}
  - {x: 0, y: 0, z: 0}
  - {x: 0.78255504, y: 0, z: 0.78255504}
  - {x: 1.1067, y: 2.2134, z: 0}
  - {x: 0, y: 2.2134, z: 0}
  - {x: 0.78255504, y: 2.2134, z: 0.78255504}
  - {x: 0.78255504, y: 0, z: 0.78255504}
  - {x: 0, y: 0, z: 0}
  - {x: -0.00000004837539, y: 0, z: 1.1067}
  - {x: 0.78255504, y: 2.2134, z: 0.78255504}
  - {x: 0, y: 2.2134, z: 0}
  - {x: -0.00000004837539, y: 2.2134, z: 1.1067}
  - {x: -0.00000004837539, y: 0, z: 1.1067}
  - {x: 0, y: 0, z: 0}
  - {x: -0.78255504, y: 0, z: 0.78255504}
  - {x: -0.00000004837539, y: 2.2134, z: 1.1067}
  - {x: 0, y: 2.2134, z: 0}
  - {x: -0.78255504, y: 2.2134, z: 0.78255504}
  - {x: -0.78255504, y: 0, z: 0.78255504}
  - {x: 0, y: 0, z: 0}
  - {x: -1.1067, y: 0, z: -0.00000009675078}
  - {x: -0.78255504, y: 2.2134, z: 0.78255504}
  - {x: 0, y: 2.2134, z: 0}
  - {x: -1.1067, y: 2.2134, z: -0.00000009675078}
  - {x: -1.1067, y: 0, z: -0.00000009675078}
  - {x: 0, y: 0, z: 0}
  - {x: -0.7825551, y: 0, z: -0.782555}
  - {x: -1.1067, y: 2.2134, z: -0.00000009675078}
  - {x: 0, y: 2.2134, z: 0}
  - {x: -0.7825551, y: 2.2134, z: -0.782555}
  - {x: -0.7825551, y: 0, z: -0.782555}
  - {x: 0, y: 0, z: 0}
  - {x: 0.000000013197265, y: 0, z: -1.1067}
  - {x: -0.7825551, y: 2.2134, z: -0.782555}
  - {x: 0, y: 2.2134, z: 0}
  - {x: 0.000000013197265, y: 2.2134, z: -1.1067}
  - {x: 0.000000013197265, y: 0, z: -1.1067}
  - {x: 0, y: 0, z: 0}
  - {x: 0.78255486, y: 0, z: -0.78255516}
  - {x: 0.000000013197265, y: 2.2134, z: -1.1067}
  - {x: 0, y: 2.2134, z: 0}
  - {x: 0.78255486, y: 2.2134, z: -0.78255516}
  - {x: 0.78255486, y: 0, z: -0.78255516}
  - {x: 0, y: 0, z: 0}
  - {x: 1.1067, y: 0, z: 0}
  - {x: 0.78255486, y: 2.2134, z: -0.78255516}
  - {x: 0, y: 2.2134, z: 0}
  - {x: 1.1067, y: 2.2134, z: 0}
  _uv:
  - {x: -0.42351574, y: 0}
  - {x: -0.42351574, y: 2.2134}
  - {x: 0.42351577, y: 0}
  - {x: 0.42351577, y: 2.2134}
  - {x: -0.4235158, y: 0}
  - {x: -0.4235158, y: 2.2134}
  - {x: 0.42351574, y: 0}
  - {x: 0.42351574, y: 2.2134}
  - {x: -0.4235157, y: 0}
  - {x: -0.4235157, y: 2.2134}
  - {x: 0.42351574, y: 0}
  - {x: 0.42351574, y: 2.2134}
  - {x: -0.42351583, y: 0}
  - {x: -0.42351583, y: 2.2134}
  - {x: 0.42351574, y: 0}
  - {x: 0.42351574, y: 2.2134}
  - {x: -0.4235157, y: 0}
  - {x: -0.4235157, y: 2.2134}
  - {x: 0.42351565, y: 0}
  - {x: 0.42351565, y: 2.2134}
  - {x: -0.42351583, y: 0}
  - {x: -0.42351583, y: 2.2134}
  - {x: 0.42351577, y: 0}
  - {x: 0.42351577, y: 2.2134}
  - {x: -0.42351568, y: 0}
  - {x: -0.42351568, y: 2.2134}
  - {x: 0.4235156, y: 0}
  - {x: 0.4235156, y: 2.2134}
  - {x: -0.4235158, y: 0}
  - {x: -0.4235158, y: 2.2134}
  - {x: 0.42351586, y: 0}
  - {x: 0.42351586, y: 2.2134}
  - {x: -1.1067, y: 0}
  - {x: 0, y: 0}
  - {x: -0.78255504, y: 0.78255504}
  - {x: 1.1067, y: 0}
  - {x: 0, y: 0}
  - {x: 0.78255504, y: 0.78255504}
  - {x: -0.78255504, y: 0.78255504}
  - {x: 0, y: 0}
  - {x: 0.00000004837539, y: 1.1067}
  - {x: 0.78255504, y: 0.78255504}
  - {x: 0, y: 0}
  - {x: -0.00000004837539, y: 1.1067}
  - {x: 0.00000004837539, y: 1.1067}
  - {x: 0, y: 0}
  - {x: 0.78255504, y: 0.78255504}
  - {x: -0.00000004837539, y: 1.1067}
  - {x: 0, y: 0}
  - {x: -0.78255504, y: 0.78255504}
  - {x: 0.78255504, y: 0.78255504}
  - {x: 0, y: 0}
  - {x: 1.1067, y: -0.00000009675078}
  - {x: -0.78255504, y: 0.78255504}
  - {x: 0, y: 0}
  - {x: -1.1067, y: -0.00000009675078}
  - {x: 1.1067, y: -0.00000009675078}
  - {x: 0, y: 0}
  - {x: 0.7825551, y: -0.782555}
  - {x: -1.1067, y: -0.00000009675078}
  - {x: 0, y: 0}
  - {x: -0.7825551, y: -0.782555}
  - {x: 0.7825551, y: -0.782555}
  - {x: 0, y: 0}
  - {x: -0.000000013197265, y: -1.1067}
  - {x: -0.7825551, y: -0.782555}
  - {x: 0, y: 0}
  - {x: 0.000000013197265, y: -1.1067}
  - {x: -0.000000013197265, y: -1.1067}
  - {x: 0, y: 0}
  - {x: -0.78255486, y: -0.78255516}
  - {x: 0.000000013197265, y: -1.1067}
  - {x: 0, y: 0}
  - {x: 0.78255486, y: -0.78255516}
  - {x: -0.78255486, y: -0.78255516}
  - {x: 0, y: 0}
  - {x: -1.1067, y: 0}
  - {x: 0.78255486, y: -0.78255516}
  - {x: 0, y: 0}
  - {x: 1.1067, y: 0}
  _uv3: []
  _uv4: []
  _tangents: []
  _sharedIndicesUV: []
  _colors:
  - {r: 1, g: 1, b: 1, a: 1}
  - {r: 1, g: 1, b: 1, a: 1}
  - {r: 1, g: 1, b: 1, a: 1}
  - {r: 1, g: 1, b: 1, a: 1}
  - {r: 1, g: 1, b: 1, a: 1}
  - {r: 1, g: 1, b: 1, a: 1}
  - {r: 1, g: 1, b: 1, a: 1}
  - {r: 1, g: 1, b: 1, a: 1}
  - {r: 1, g: 1, b: 1, a: 1}
  - {r: 1, g: 1, b: 1, a: 1}
  - {r: 1, g: 1, b: 1, a: 1}
  - {r: 1, g: 1, b: 1, a: 1}
  - {r: 1, g: 1, b: 1, a: 1}
  - {r: 1, g: 1, b: 1, a: 1}
  - {r: 1, g: 1, b: 1, a: 1}
  - {r: 1, g: 1, b: 1, a: 1}
  - {r: 1, g: 1, b: 1, a: 1}
  - {r: 1, g: 1, b: 1, a: 1}
  - {r: 1, g: 1, b: 1, a: 1}
  - {r: 1, g: 1, b: 1, a: 1}
  - {r: 1, g: 1, b: 1, a: 1}
  - {r: 1, g: 1, b: 1, a: 1}
  - {r: 1, g: 1, b: 1, a: 1}
  - {r: 1, g: 1, b: 1, a: 1}
  - {r: 1, g: 1, b: 1, a: 1}
  - {r: 1, g: 1, b: 1, a: 1}
  - {r: 1, g: 1, b: 1, a: 1}
  - {r: 1, g: 1, b: 1, a: 1}
  - {r: 1, g: 1, b: 1, a: 1}
  - {r: 1, g: 1, b: 1, a: 1}
  - {r: 1, g: 1, b: 1, a: 1}
  - {r: 1, g: 1, b: 1, a: 1}
  - {r: 1, g: 1, b: 1, a: 1}
  - {r: 1, g: 1, b: 1, a: 1}
  - {r: 1, g: 1, b: 1, a: 1}
  - {r: 1, g: 1, b: 1, a: 1}
  - {r: 1, g: 1, b: 1, a: 1}
  - {r: 1, g: 1, b: 1, a: 1}
  - {r: 1, g: 1, b: 1, a: 1}
  - {r: 1, g: 1, b: 1, a: 1}
  - {r: 1, g: 1, b: 1, a: 1}
  - {r: 1, g: 1, b: 1, a: 1}
  - {r: 1, g: 1, b: 1, a: 1}
  - {r: 1, g: 1, b: 1, a: 1}
  - {r: 1, g: 1, b: 1, a: 1}
  - {r: 1, g: 1, b: 1, a: 1}
  - {r: 1, g: 1, b: 1, a: 1}
  - {r: 1, g: 1, b: 1, a: 1}
  - {r: 1, g: 1, b: 1, a: 1}
  - {r: 1, g: 1, b: 1, a: 1}
  - {r: 1, g: 1, b: 1, a: 1}
  - {r: 1, g: 1, b: 1, a: 1}
  - {r: 1, g: 1, b: 1, a: 1}
  - {r: 1, g: 1, b: 1, a: 1}
  - {r: 1, g: 1, b: 1, a: 1}
  - {r: 1, g: 1, b: 1, a: 1}
  - {r: 1, g: 1, b: 1, a: 1}
  - {r: 1, g: 1, b: 1, a: 1}
  - {r: 1, g: 1, b: 1, a: 1}
  - {r: 1, g: 1, b: 1, a: 1}
  - {r: 1, g: 1, b: 1, a: 1}
  - {r: 1, g: 1, b: 1, a: 1}
  - {r: 1, g: 1, b: 1, a: 1}
  - {r: 1, g: 1, b: 1, a: 1}
  - {r: 1, g: 1, b: 1, a: 1}
  - {r: 1, g: 1, b: 1, a: 1}
  - {r: 1, g: 1, b: 1, a: 1}
  - {r: 1, g: 1, b: 1, a: 1}
  - {r: 1, g: 1, b: 1, a: 1}
  - {r: 1, g: 1, b: 1, a: 1}
  - {r: 1, g: 1, b: 1, a: 1}
  - {r: 1, g: 1, b: 1, a: 1}
  - {r: 1, g: 1, b: 1, a: 1}
  - {r: 1, g: 1, b: 1, a: 1}
  - {r: 1, g: 1, b: 1, a: 1}
  - {r: 1, g: 1, b: 1, a: 1}
  - {r: 1, g: 1, b: 1, a: 1}
  - {r: 1, g: 1, b: 1, a: 1}
  - {r: 1, g: 1, b: 1, a: 1}
  - {r: 1, g: 1, b: 1, a: 1}
  userCollisions: 0
  isSelectable: 1
  unwrapParameters:
    hardAngle: 88
    packMargin: 4
    angleError: 8
    areaError: 15
  asset_guid: 
  dontDestroyMeshOnDelete: 0
  m_selectedFaces: 
  m_SelectedEdges: []
  m_selectedTriangles: 
--- !u!64 &345501918836450245
MeshCollider:
  m_ObjectHideFlags: 0
  m_CorrespondingSourceObject: {fileID: 0}
  m_PrefabInstance: {fileID: 0}
  m_PrefabAsset: {fileID: 0}
  m_GameObject: {fileID: 345501918836450246}
  m_Material: {fileID: 0}
  m_IsTrigger: 0
  m_Enabled: 1
  serializedVersion: 3
  m_Convex: 0
  m_CookingOptions: 14
  m_Mesh: {fileID: 0}
--- !u!1 &345501919793503432
GameObject:
  m_ObjectHideFlags: 0
  m_CorrespondingSourceObject: {fileID: 0}
  m_PrefabInstance: {fileID: 0}
  m_PrefabAsset: {fileID: 0}
  serializedVersion: 6
  m_Component:
  - component: {fileID: 345501919793503439}
  m_Layer: 0
  m_Name: Tube
  m_TagString: Untagged
  m_Icon: {fileID: 0}
  m_NavMeshLayer: 0
  m_StaticEditorFlags: 0
  m_IsActive: 1
--- !u!4 &345501919793503439
Transform:
  m_ObjectHideFlags: 0
  m_CorrespondingSourceObject: {fileID: 0}
  m_PrefabInstance: {fileID: 0}
  m_PrefabAsset: {fileID: 0}
  m_GameObject: {fileID: 345501919793503432}
  m_LocalRotation: {x: -0, y: -0, z: -0, w: 1}
  m_LocalPosition: {x: 95, y: 0, z: 51}
  m_LocalScale: {x: 7.472905, y: 7.472905, z: 7.472905}
  m_Children:
  - {fileID: 345501919950569670}
  - {fileID: 345501918836450264}
  m_Father: {fileID: 0}
  m_RootOrder: 0
  m_LocalEulerAnglesHint: {x: 0, y: 0, z: 0}
--- !u!1 &345501919950569676
GameObject:
  m_ObjectHideFlags: 0
  m_CorrespondingSourceObject: {fileID: 0}
  m_PrefabInstance: {fileID: 0}
  m_PrefabAsset: {fileID: 0}
  serializedVersion: 6
  m_Component:
  - component: {fileID: 345501919950569670}
  - component: {fileID: 345501919950569671}
  - component: {fileID: 345501919950569664}
  - component: {fileID: 345501919950569665}
  - component: {fileID: 345501919950569666}
  - component: {fileID: 345501919950569667}
  m_Layer: 0
  m_Name: Cylinder
  m_TagString: Untagged
  m_Icon: {fileID: 0}
  m_NavMeshLayer: 0
  m_StaticEditorFlags: 127
  m_IsActive: 1
--- !u!4 &345501919950569670
Transform:
  m_ObjectHideFlags: 0
  m_CorrespondingSourceObject: {fileID: 0}
  m_PrefabInstance: {fileID: 0}
  m_PrefabAsset: {fileID: 0}
  m_GameObject: {fileID: 345501919950569676}
  m_LocalRotation: {x: -0, y: -0, z: -0, w: 1}
  m_LocalPosition: {x: -11.695585, y: 0.74937385, z: -4.0011215}
  m_LocalScale: {x: 0.13381676, y: 0.22146672, z: 0.13381676}
  m_Children: []
  m_Father: {fileID: 345501919793503439}
  m_RootOrder: 0
  m_LocalEulerAnglesHint: {x: 0, y: 0, z: 0}
--- !u!33 &345501919950569671
MeshFilter:
  m_ObjectHideFlags: 0
  m_CorrespondingSourceObject: {fileID: 0}
  m_PrefabInstance: {fileID: 0}
  m_PrefabAsset: {fileID: 0}
  m_GameObject: {fileID: 345501919950569676}
  m_Mesh: {fileID: 0}
--- !u!23 &345501919950569664
MeshRenderer:
  m_ObjectHideFlags: 0
  m_CorrespondingSourceObject: {fileID: 0}
  m_PrefabInstance: {fileID: 0}
  m_PrefabAsset: {fileID: 0}
  m_GameObject: {fileID: 345501919950569676}
  m_Enabled: 1
  m_CastShadows: 2
  m_ReceiveShadows: 1
  m_DynamicOccludee: 1
  m_MotionVectors: 1
  m_LightProbeUsage: 1
  m_ReflectionProbeUsage: 1
  m_RenderingLayerMask: 1
  m_RendererPriority: 0
  m_Materials:
  - {fileID: 2100000, guid: 857286e56ca500a46975599107a65726, type: 2}
  m_StaticBatchInfo:
    firstSubMesh: 0
    subMeshCount: 0
  m_StaticBatchRoot: {fileID: 0}
  m_ProbeAnchor: {fileID: 0}
  m_LightProbeVolumeOverride: {fileID: 0}
  m_ScaleInLightmap: 1
  m_PreserveUVs: 0
  m_IgnoreNormalsForChartDetection: 0
  m_ImportantGI: 0
  m_StitchLightmapSeams: 0
  m_SelectedEditorRenderState: 2
  m_MinimumChartSize: 4
  m_AutoUVMaxDistance: 0.5
  m_AutoUVMaxAngle: 89
  m_LightmapParameters: {fileID: 0}
  m_SortingLayerID: 0
  m_SortingLayer: 0
  m_SortingOrder: 0
--- !u!114 &345501919950569665
MonoBehaviour:
  m_ObjectHideFlags: 0
  m_CorrespondingSourceObject: {fileID: 0}
  m_PrefabInstance: {fileID: 0}
  m_PrefabAsset: {fileID: 0}
  m_GameObject: {fileID: 345501919950569676}
  m_Enabled: 1
  m_EditorHideFlags: 0
  m_Script: {fileID: 16342205, guid: 0472bdc8d6d15384d98f22ee34302f9c, type: 3}
  m_Name: 
  m_EditorClassIdentifier: 
  _entityType: 0
--- !u!114 &345501919950569666
MonoBehaviour:
  m_ObjectHideFlags: 0
  m_CorrespondingSourceObject: {fileID: 0}
  m_PrefabInstance: {fileID: 0}
  m_PrefabAsset: {fileID: 0}
  m_GameObject: {fileID: 345501919950569676}
  m_Enabled: 1
  m_EditorHideFlags: 0
  m_Script: {fileID: 185759285, guid: 0472bdc8d6d15384d98f22ee34302f9c, type: 3}
  m_Name: 
  m_EditorClassIdentifier: 
  _quads:
  - _indices: 000000000100000002000000010000000300000002000000
    _distinctIndices: 00000000010000000200000003000000
    _edges:
    - x: 0
      y: 1
    - x: 2
      y: 0
    - x: 1
      y: 3
    - x: 3
      y: 2
    _smoothingGroup: 1
    _uv:
      useWorldSpace: 0
      flipU: 0
      flipV: 0
      swapUV: 0
      fill: 1
      scale: {x: 1, y: 1}
      offset: {x: 0, y: 0}
      rotation: 0
      justify: 0
      localPivot: {x: 0.000000014901161, y: 1.1067}
      localSize: {x: 0, y: 0}
      anchor: 9
    _mat: {fileID: 2100000, guid: 857286e56ca500a46975599107a65726, type: 2}
    manualUV: 0
    elementGroup: -1
    textureGroup: -1
  - _indices: 040000000500000006000000050000000700000006000000
    _distinctIndices: 04000000050000000600000007000000
    _edges:
    - x: 4
      y: 5
    - x: 6
      y: 4
    - x: 5
      y: 7
    - x: 7
      y: 6
    _smoothingGroup: 1
    _uv:
      useWorldSpace: 0
      flipU: 0
      flipV: 0
      swapUV: 0
      fill: 1
      scale: {x: 1, y: 1}
      offset: {x: 0, y: 0}
      rotation: 0
      justify: 0
      localPivot: {x: -0.000000029802322, y: 1.1067}
      localSize: {x: 0, y: 0}
      anchor: 9
    _mat: {fileID: 2100000, guid: 857286e56ca500a46975599107a65726, type: 2}
    manualUV: 0
    elementGroup: -1
    textureGroup: -1
  - _indices: 08000000090000000a000000090000000b0000000a000000
    _distinctIndices: 08000000090000000a0000000b000000
    _edges:
    - x: 8
      y: 9
    - x: 10
      y: 8
    - x: 9
      y: 11
    - x: 11
      y: 10
    _smoothingGroup: 1
    _uv:
      useWorldSpace: 0
      flipU: 0
      flipV: 0
      swapUV: 0
      fill: 1
      scale: {x: 1, y: 1}
      offset: {x: 0, y: 0}
      rotation: 0
      justify: 0
      localPivot: {x: 0.000000014901161, y: 1.1067}
      localSize: {x: 0, y: 0}
      anchor: 9
    _mat: {fileID: 2100000, guid: 857286e56ca500a46975599107a65726, type: 2}
    manualUV: 0
    elementGroup: -1
    textureGroup: -1
  - _indices: 0c0000000d0000000e0000000d0000000f0000000e000000
    _distinctIndices: 0c0000000d0000000e0000000f000000
    _edges:
    - x: 12
      y: 13
    - x: 14
      y: 12
    - x: 13
      y: 15
    - x: 15
      y: 14
    _smoothingGroup: 1
    _uv:
      useWorldSpace: 0
      flipU: 0
      flipV: 0
      swapUV: 0
      fill: 1
      scale: {x: 1, y: 1}
      offset: {x: 0, y: 0}
      rotation: 0
      justify: 0
      localPivot: {x: -0.000000044703484, y: 1.1067}
      localSize: {x: 0, y: 0}
      anchor: 9
    _mat: {fileID: 2100000, guid: 857286e56ca500a46975599107a65726, type: 2}
    manualUV: 0
    elementGroup: -1
    textureGroup: -1
  - _indices: 100000001100000012000000110000001300000012000000
    _distinctIndices: 10000000110000001200000013000000
    _edges:
    - x: 16
      y: 17
    - x: 18
      y: 16
    - x: 17
      y: 19
    - x: 19
      y: 18
    _smoothingGroup: 1
    _uv:
      useWorldSpace: 0
      flipU: 0
      flipV: 0
      swapUV: 0
      fill: 1
      scale: {x: 1, y: 1}
      offset: {x: 0, y: 0}
      rotation: 0
      justify: 0
      localPivot: {x: -0.000000029802322, y: 1.1067}
      localSize: {x: 0, y: 0}
      anchor: 9
    _mat: {fileID: 2100000, guid: 857286e56ca500a46975599107a65726, type: 2}
    manualUV: 0
    elementGroup: -1
    textureGroup: -1
  - _indices: 140000001500000016000000150000001700000016000000
    _distinctIndices: 14000000150000001600000017000000
    _edges:
    - x: 20
      y: 21
    - x: 22
      y: 20
    - x: 21
      y: 23
    - x: 23
      y: 22
    _smoothingGroup: 1
    _uv:
      useWorldSpace: 0
      flipU: 0
      flipV: 0
      swapUV: 0
      fill: 1
      scale: {x: 1, y: 1}
      offset: {x: 0, y: 0}
      rotation: 0
      justify: 0
      localPivot: {x: -0.000000029802322, y: 1.1067}
      localSize: {x: 0, y: 0}
      anchor: 9
    _mat: {fileID: 2100000, guid: 857286e56ca500a46975599107a65726, type: 2}
    manualUV: 0
    elementGroup: -1
    textureGroup: -1
  - _indices: 18000000190000001a000000190000001b0000001a000000
    _distinctIndices: 18000000190000001a0000001b000000
    _edges:
    - x: 24
      y: 25
    - x: 26
      y: 24
    - x: 25
      y: 27
    - x: 27
      y: 26
    _smoothingGroup: 1
    _uv:
      useWorldSpace: 0
      flipU: 0
      flipV: 0
      swapUV: 0
      fill: 1
      scale: {x: 1, y: 1}
      offset: {x: 0, y: 0}
      rotation: 0
      justify: 0
      localPivot: {x: -0.000000044703484, y: 1.1067}
      localSize: {x: 0, y: 0}
      anchor: 9
    _mat: {fileID: 2100000, guid: 857286e56ca500a46975599107a65726, type: 2}
    manualUV: 0
    elementGroup: -1
    textureGroup: -1
  - _indices: 1c0000001d0000001e0000001d0000001f0000001e000000
    _distinctIndices: 1c0000001d0000001e0000001f000000
    _edges:
    - x: 28
      y: 29
    - x: 30
      y: 28
    - x: 29
      y: 31
    - x: 31
      y: 30
    _smoothingGroup: 1
    _uv:
      useWorldSpace: 0
      flipU: 0
      flipV: 0
      swapUV: 0
      fill: 1
      scale: {x: 1, y: 1}
      offset: {x: 0, y: 0}
      rotation: 0
      justify: 0
      localPivot: {x: 0.000000029802322, y: 1.1067}
      localSize: {x: 0, y: 0}
      anchor: 9
    _mat: {fileID: 2100000, guid: 857286e56ca500a46975599107a65726, type: 2}
    manualUV: 0
    elementGroup: -1
    textureGroup: -1
  - _indices: 220000002100000020000000
    _distinctIndices: 220000002100000020000000
    _edges:
    - x: 34
      y: 33
    - x: 33
      y: 32
    - x: 32
      y: 34
    _smoothingGroup: 0
    _uv:
      useWorldSpace: 0
      flipU: 0
      flipV: 0
      swapUV: 0
      fill: 1
      scale: {x: 1, y: 1}
      offset: {x: 0, y: 0}
      rotation: 0
      justify: 0
      localPivot: {x: -0.55335, y: 0.39127752}
      localSize: {x: 0, y: 0}
      anchor: 9
    _mat: {fileID: 2100000, guid: 857286e56ca500a46975599107a65726, type: 2}
    manualUV: 0
    elementGroup: 0
    textureGroup: -1
  - _indices: 280000002700000026000000
    _distinctIndices: 280000002700000026000000
    _edges:
    - x: 40
      y: 39
    - x: 39
      y: 38
    - x: 38
      y: 40
    _smoothingGroup: 0
    _uv:
      useWorldSpace: 0
      flipU: 0
      flipV: 0
      swapUV: 0
      fill: 1
      scale: {x: 1, y: 1}
      offset: {x: 0, y: 0}
      rotation: 0
      justify: 0
      localPivot: {x: -0.3912775, y: 0.55335}
      localSize: {x: 0, y: 0}
      anchor: 9
    _mat: {fileID: 2100000, guid: 857286e56ca500a46975599107a65726, type: 2}
    manualUV: 0
    elementGroup: 0
    textureGroup: -1
  - _indices: 2e0000002d0000002c000000
    _distinctIndices: 2e0000002d0000002c000000
    _edges:
    - x: 46
      y: 45
    - x: 45
      y: 44
    - x: 44
      y: 46
    _smoothingGroup: 0
    _uv:
      useWorldSpace: 0
      flipU: 0
      flipV: 0
      swapUV: 0
      fill: 1
      scale: {x: 1, y: 1}
      offset: {x: 0, y: 0}
      rotation: 0
      justify: 0
      localPivot: {x: 0.39127752, y: 0.55335}
      localSize: {x: 0, y: 0}
      anchor: 9
    _mat: {fileID: 2100000, guid: 857286e56ca500a46975599107a65726, type: 2}
    manualUV: 0
    elementGroup: 0
    textureGroup: -1
  - _indices: 340000003300000032000000
    _distinctIndices: 340000003300000032000000
    _edges:
    - x: 52
      y: 51
    - x: 51
      y: 50
    - x: 50
      y: 52
    _smoothingGroup: 0
    _uv:
      useWorldSpace: 0
      flipU: 0
      flipV: 0
      swapUV: 0
      fill: 1
      scale: {x: 1, y: 1}
      offset: {x: 0, y: 0}
      rotation: 0
      justify: 0
      localPivot: {x: 0.55335, y: 0.39127746}
      localSize: {x: 0, y: 0}
      anchor: 9
    _mat: {fileID: 2100000, guid: 857286e56ca500a46975599107a65726, type: 2}
    manualUV: 0
    elementGroup: 0
    textureGroup: -1
  - _indices: 3a0000003900000038000000
    _distinctIndices: 3a0000003900000038000000
    _edges:
    - x: 58
      y: 57
    - x: 57
      y: 56
    - x: 56
      y: 58
    _smoothingGroup: 0
    _uv:
      useWorldSpace: 0
      flipU: 0
      flipV: 0
      swapUV: 0
      fill: 1
      scale: {x: 1, y: 1}
      offset: {x: 0, y: 0}
      rotation: 0
      justify: 0
      localPivot: {x: 0.55335, y: -0.3912775}
      localSize: {x: 0, y: 0}
      anchor: 9
    _mat: {fileID: 2100000, guid: 857286e56ca500a46975599107a65726, type: 2}
    manualUV: 0
    elementGroup: 0
    textureGroup: -1
  - _indices: 400000003f0000003e000000
    _distinctIndices: 400000003f0000003e000000
    _edges:
    - x: 64
      y: 63
    - x: 63
      y: 62
    - x: 62
      y: 64
    _smoothingGroup: 0
    _uv:
      useWorldSpace: 0
      flipU: 0
      flipV: 0
      swapUV: 0
      fill: 1
      scale: {x: 1, y: 1}
      offset: {x: 0, y: 0}
      rotation: 0
      justify: 0
      localPivot: {x: 0.39127755, y: -0.55335}
      localSize: {x: 0, y: 0}
      anchor: 9
    _mat: {fileID: 2100000, guid: 857286e56ca500a46975599107a65726, type: 2}
    manualUV: 0
    elementGroup: 0
    textureGroup: -1
  - _indices: 460000004500000044000000
    _distinctIndices: 460000004500000044000000
    _edges:
    - x: 70
      y: 69
    - x: 69
      y: 68
    - x: 68
      y: 70
    _smoothingGroup: 0
    _uv:
      useWorldSpace: 0
      flipU: 0
      flipV: 0
      swapUV: 0
      fill: 1
      scale: {x: 1, y: 1}
      offset: {x: 0, y: 0}
      rotation: 0
      justify: 0
      localPivot: {x: -0.39127743, y: -0.55335}
      localSize: {x: 0, y: 0}
      anchor: 9
    _mat: {fileID: 2100000, guid: 857286e56ca500a46975599107a65726, type: 2}
    manualUV: 0
    elementGroup: 0
    textureGroup: -1
  - _indices: 4c0000004b0000004a000000
    _distinctIndices: 4c0000004b0000004a000000
    _edges:
    - x: 76
      y: 75
    - x: 75
      y: 74
    - x: 74
      y: 76
    _smoothingGroup: 0
    _uv:
      useWorldSpace: 0
      flipU: 0
      flipV: 0
      swapUV: 0
      fill: 1
      scale: {x: 1, y: 1}
      offset: {x: 0, y: 0}
      rotation: 0
      justify: 0
      localPivot: {x: -0.55335, y: -0.39127758}
      localSize: {x: 0, y: 0}
      anchor: 9
    _mat: {fileID: 2100000, guid: 857286e56ca500a46975599107a65726, type: 2}
    manualUV: 0
    elementGroup: 0
    textureGroup: -1
  - _indices: 230000002400000025000000
    _distinctIndices: 230000002400000025000000
    _edges:
    - x: 35
      y: 36
    - x: 36
      y: 37
    - x: 37
      y: 35
    _smoothingGroup: 0
    _uv:
      useWorldSpace: 0
      flipU: 0
      flipV: 0
      swapUV: 0
      fill: 1
      scale: {x: 1, y: 1}
      offset: {x: 0, y: 0}
      rotation: 0
      justify: 0
      localPivot: {x: 0.55335, y: 0.39127752}
      localSize: {x: 0, y: 0}
      anchor: 9
    _mat: {fileID: 2100000, guid: 857286e56ca500a46975599107a65726, type: 2}
    manualUV: 0
    elementGroup: 0
    textureGroup: -1
  - _indices: 290000002a0000002b000000
    _distinctIndices: 290000002a0000002b000000
    _edges:
    - x: 41
      y: 42
    - x: 42
      y: 43
    - x: 43
      y: 41
    _smoothingGroup: 0
    _uv:
      useWorldSpace: 0
      flipU: 0
      flipV: 0
      swapUV: 0
      fill: 1
      scale: {x: 1, y: 1}
      offset: {x: 0, y: 0}
      rotation: 0
      justify: 0
      localPivot: {x: 0.3912775, y: 0.55335}
      localSize: {x: 0, y: 0}
      anchor: 9
    _mat: {fileID: 2100000, guid: 857286e56ca500a46975599107a65726, type: 2}
    manualUV: 0
    elementGroup: 0
    textureGroup: -1
  - _indices: 2f0000003000000031000000
    _distinctIndices: 2f0000003000000031000000
    _edges:
    - x: 47
      y: 48
    - x: 48
      y: 49
    - x: 49
      y: 47
    _smoothingGroup: 0
    _uv:
      useWorldSpace: 0
      flipU: 0
      flipV: 0
      swapUV: 0
      fill: 1
      scale: {x: 1, y: 1}
      offset: {x: 0, y: 0}
      rotation: 0
      justify: 0
      localPivot: {x: -0.39127752, y: 0.55335}
      localSize: {x: 0, y: 0}
      anchor: 9
    _mat: {fileID: 2100000, guid: 857286e56ca500a46975599107a65726, type: 2}
    manualUV: 0
    elementGroup: 0
    textureGroup: -1
  - _indices: 350000003600000037000000
    _distinctIndices: 350000003600000037000000
    _edges:
    - x: 53
      y: 54
    - x: 54
      y: 55
    - x: 55
      y: 53
    _smoothingGroup: 0
    _uv:
      useWorldSpace: 0
      flipU: 0
      flipV: 0
      swapUV: 0
      fill: 1
      scale: {x: 1, y: 1}
      offset: {x: 0, y: 0}
      rotation: 0
      justify: 0
      localPivot: {x: -0.55335, y: 0.39127746}
      localSize: {x: 0, y: 0}
      anchor: 9
    _mat: {fileID: 2100000, guid: 857286e56ca500a46975599107a65726, type: 2}
    manualUV: 0
    elementGroup: 0
    textureGroup: -1
  - _indices: 3b0000003c0000003d000000
    _distinctIndices: 3b0000003c0000003d000000
    _edges:
    - x: 59
      y: 60
    - x: 60
      y: 61
    - x: 61
      y: 59
    _smoothingGroup: 0
    _uv:
      useWorldSpace: 0
      flipU: 0
      flipV: 0
      swapUV: 0
      fill: 1
      scale: {x: 1, y: 1}
      offset: {x: 0, y: 0}
      rotation: 0
      justify: 0
      localPivot: {x: -0.55335, y: -0.3912775}
      localSize: {x: 0, y: 0}
      anchor: 9
    _mat: {fileID: 2100000, guid: 857286e56ca500a46975599107a65726, type: 2}
    manualUV: 0
    elementGroup: 0
    textureGroup: -1
  - _indices: 410000004200000043000000
    _distinctIndices: 410000004200000043000000
    _edges:
    - x: 65
      y: 66
    - x: 66
      y: 67
    - x: 67
      y: 65
    _smoothingGroup: 0
    _uv:
      useWorldSpace: 0
      flipU: 0
      flipV: 0
      swapUV: 0
      fill: 1
      scale: {x: 1, y: 1}
      offset: {x: 0, y: 0}
      rotation: 0
      justify: 0
      localPivot: {x: -0.39127755, y: -0.55335}
      localSize: {x: 0, y: 0}
      anchor: 9
    _mat: {fileID: 2100000, guid: 857286e56ca500a46975599107a65726, type: 2}
    manualUV: 0
    elementGroup: 0
    textureGroup: -1
  - _indices: 470000004800000049000000
    _distinctIndices: 470000004800000049000000
    _edges:
    - x: 71
      y: 72
    - x: 72
      y: 73
    - x: 73
      y: 71
    _smoothingGroup: 0
    _uv:
      useWorldSpace: 0
      flipU: 0
      flipV: 0
      swapUV: 0
      fill: 1
      scale: {x: 1, y: 1}
      offset: {x: 0, y: 0}
      rotation: 0
      justify: 0
      localPivot: {x: 0.39127743, y: -0.55335}
      localSize: {x: 0, y: 0}
      anchor: 9
    _mat: {fileID: 2100000, guid: 857286e56ca500a46975599107a65726, type: 2}
    manualUV: 0
    elementGroup: 0
    textureGroup: -1
  - _indices: 4d0000004e0000004f000000
    _distinctIndices: 4d0000004e0000004f000000
    _edges:
    - x: 77
      y: 78
    - x: 78
      y: 79
    - x: 79
      y: 77
    _smoothingGroup: 0
    _uv:
      useWorldSpace: 0
      flipU: 0
      flipV: 0
      swapUV: 0
      fill: 1
      scale: {x: 1, y: 1}
      offset: {x: 0, y: 0}
      rotation: 0
      justify: 0
      localPivot: {x: 0.55335, y: -0.39127758}
      localSize: {x: 0, y: 0}
      anchor: 9
    _mat: {fileID: 2100000, guid: 857286e56ca500a46975599107a65726, type: 2}
    manualUV: 0
    elementGroup: 0
    textureGroup: -1
  _sharedIndices:
  - array: 000000001e000000200000004c000000
  - array: 010000001f000000230000004f000000
  - array: 02000000040000002200000026000000
  - array: 03000000050000002500000029000000
  - array: 0600000008000000280000002c000000
  - array: 07000000090000002b0000002f000000
  - array: 0a0000000c0000002e00000032000000
  - array: 0b0000000d0000003100000035000000
  - array: 0e000000100000003400000038000000
  - array: 0f00000011000000370000003b000000
  - array: 12000000140000003a0000003e000000
  - array: 13000000150000003d00000041000000
  - array: 16000000180000004000000044000000
  - array: 17000000190000004300000047000000
  - array: 1a0000001c000000460000004a000000
  - array: 1b0000001d000000490000004d000000
  - array: 21000000270000002d00000033000000390000003f000000450000004b000000
  - array: 240000002a00000030000000360000003c00000042000000480000004e000000
  _vertices:
  - {x: 1.1067, y: 0, z: 0}
  - {x: 1.1067, y: 2.2134, z: 0}
  - {x: 0.78255504, y: 0, z: 0.78255504}
  - {x: 0.78255504, y: 2.2134, z: 0.78255504}
  - {x: 0.78255504, y: 0, z: 0.78255504}
  - {x: 0.78255504, y: 2.2134, z: 0.78255504}
  - {x: -0.00000004837539, y: 0, z: 1.1067}
  - {x: -0.00000004837539, y: 2.2134, z: 1.1067}
  - {x: -0.00000004837539, y: 0, z: 1.1067}
  - {x: -0.00000004837539, y: 2.2134, z: 1.1067}
  - {x: -0.78255504, y: 0, z: 0.78255504}
  - {x: -0.78255504, y: 2.2134, z: 0.78255504}
  - {x: -0.78255504, y: 0, z: 0.78255504}
  - {x: -0.78255504, y: 2.2134, z: 0.78255504}
  - {x: -1.1067, y: 0, z: -0.00000009675078}
  - {x: -1.1067, y: 2.2134, z: -0.00000009675078}
  - {x: -1.1067, y: 0, z: -0.00000009675078}
  - {x: -1.1067, y: 2.2134, z: -0.00000009675078}
  - {x: -0.7825551, y: 0, z: -0.782555}
  - {x: -0.7825551, y: 2.2134, z: -0.782555}
  - {x: -0.7825551, y: 0, z: -0.782555}
  - {x: -0.7825551, y: 2.2134, z: -0.782555}
  - {x: 0.000000013197265, y: 0, z: -1.1067}
  - {x: 0.000000013197265, y: 2.2134, z: -1.1067}
  - {x: 0.000000013197265, y: 0, z: -1.1067}
  - {x: 0.000000013197265, y: 2.2134, z: -1.1067}
  - {x: 0.78255486, y: 0, z: -0.78255516}
  - {x: 0.78255486, y: 2.2134, z: -0.78255516}
  - {x: 0.78255486, y: 0, z: -0.78255516}
  - {x: 0.78255486, y: 2.2134, z: -0.78255516}
  - {x: 1.1067, y: 0, z: 0}
  - {x: 1.1067, y: 2.2134, z: 0}
  - {x: 1.1067, y: 0, z: 0}
  - {x: 0, y: 0, z: 0}
  - {x: 0.78255504, y: 0, z: 0.78255504}
  - {x: 1.1067, y: 2.2134, z: 0}
  - {x: 0, y: 2.2134, z: 0}
  - {x: 0.78255504, y: 2.2134, z: 0.78255504}
  - {x: 0.78255504, y: 0, z: 0.78255504}
  - {x: 0, y: 0, z: 0}
  - {x: -0.00000004837539, y: 0, z: 1.1067}
  - {x: 0.78255504, y: 2.2134, z: 0.78255504}
  - {x: 0, y: 2.2134, z: 0}
  - {x: -0.00000004837539, y: 2.2134, z: 1.1067}
  - {x: -0.00000004837539, y: 0, z: 1.1067}
  - {x: 0, y: 0, z: 0}
  - {x: -0.78255504, y: 0, z: 0.78255504}
  - {x: -0.00000004837539, y: 2.2134, z: 1.1067}
  - {x: 0, y: 2.2134, z: 0}
  - {x: -0.78255504, y: 2.2134, z: 0.78255504}
  - {x: -0.78255504, y: 0, z: 0.78255504}
  - {x: 0, y: 0, z: 0}
  - {x: -1.1067, y: 0, z: -0.00000009675078}
  - {x: -0.78255504, y: 2.2134, z: 0.78255504}
  - {x: 0, y: 2.2134, z: 0}
  - {x: -1.1067, y: 2.2134, z: -0.00000009675078}
  - {x: -1.1067, y: 0, z: -0.00000009675078}
  - {x: 0, y: 0, z: 0}
  - {x: -0.7825551, y: 0, z: -0.782555}
  - {x: -1.1067, y: 2.2134, z: -0.00000009675078}
  - {x: 0, y: 2.2134, z: 0}
  - {x: -0.7825551, y: 2.2134, z: -0.782555}
  - {x: -0.7825551, y: 0, z: -0.782555}
  - {x: 0, y: 0, z: 0}
  - {x: 0.000000013197265, y: 0, z: -1.1067}
  - {x: -0.7825551, y: 2.2134, z: -0.782555}
  - {x: 0, y: 2.2134, z: 0}
  - {x: 0.000000013197265, y: 2.2134, z: -1.1067}
  - {x: 0.000000013197265, y: 0, z: -1.1067}
  - {x: 0, y: 0, z: 0}
  - {x: 0.78255486, y: 0, z: -0.78255516}
  - {x: 0.000000013197265, y: 2.2134, z: -1.1067}
  - {x: 0, y: 2.2134, z: 0}
  - {x: 0.78255486, y: 2.2134, z: -0.78255516}
  - {x: 0.78255486, y: 0, z: -0.78255516}
  - {x: 0, y: 0, z: 0}
  - {x: 1.1067, y: 0, z: 0}
  - {x: 0.78255486, y: 2.2134, z: -0.78255516}
  - {x: 0, y: 2.2134, z: 0}
  - {x: 1.1067, y: 2.2134, z: 0}
  _uv:
  - {x: -0.42351574, y: 0}
  - {x: -0.42351574, y: 2.2134}
  - {x: 0.42351577, y: 0}
  - {x: 0.42351577, y: 2.2134}
  - {x: -0.4235158, y: 0}
  - {x: -0.4235158, y: 2.2134}
  - {x: 0.42351574, y: 0}
  - {x: 0.42351574, y: 2.2134}
  - {x: -0.4235157, y: 0}
  - {x: -0.4235157, y: 2.2134}
  - {x: 0.42351574, y: 0}
  - {x: 0.42351574, y: 2.2134}
  - {x: -0.42351583, y: 0}
  - {x: -0.42351583, y: 2.2134}
  - {x: 0.42351574, y: 0}
  - {x: 0.42351574, y: 2.2134}
  - {x: -0.4235157, y: 0}
  - {x: -0.4235157, y: 2.2134}
  - {x: 0.42351565, y: 0}
  - {x: 0.42351565, y: 2.2134}
  - {x: -0.42351583, y: 0}
  - {x: -0.42351583, y: 2.2134}
  - {x: 0.42351577, y: 0}
  - {x: 0.42351577, y: 2.2134}
  - {x: -0.42351568, y: 0}
  - {x: -0.42351568, y: 2.2134}
  - {x: 0.4235156, y: 0}
  - {x: 0.4235156, y: 2.2134}
  - {x: -0.4235158, y: 0}
  - {x: -0.4235158, y: 2.2134}
  - {x: 0.42351586, y: 0}
  - {x: 0.42351586, y: 2.2134}
  - {x: -1.1067, y: 0}
  - {x: 0, y: 0}
  - {x: -0.78255504, y: 0.78255504}
  - {x: 1.1067, y: 0}
  - {x: 0, y: 0}
  - {x: 0.78255504, y: 0.78255504}
  - {x: -0.78255504, y: 0.78255504}
  - {x: 0, y: 0}
  - {x: 0.00000004837539, y: 1.1067}
  - {x: 0.78255504, y: 0.78255504}
  - {x: 0, y: 0}
  - {x: -0.00000004837539, y: 1.1067}
  - {x: 0.00000004837539, y: 1.1067}
  - {x: 0, y: 0}
  - {x: 0.78255504, y: 0.78255504}
  - {x: -0.00000004837539, y: 1.1067}
  - {x: 0, y: 0}
  - {x: -0.78255504, y: 0.78255504}
  - {x: 0.78255504, y: 0.78255504}
  - {x: 0, y: 0}
  - {x: 1.1067, y: -0.00000009675078}
  - {x: -0.78255504, y: 0.78255504}
  - {x: 0, y: 0}
  - {x: -1.1067, y: -0.00000009675078}
  - {x: 1.1067, y: -0.00000009675078}
  - {x: 0, y: 0}
  - {x: 0.7825551, y: -0.782555}
  - {x: -1.1067, y: -0.00000009675078}
  - {x: 0, y: 0}
  - {x: -0.7825551, y: -0.782555}
  - {x: 0.7825551, y: -0.782555}
  - {x: 0, y: 0}
  - {x: -0.000000013197265, y: -1.1067}
  - {x: -0.7825551, y: -0.782555}
  - {x: 0, y: 0}
  - {x: 0.000000013197265, y: -1.1067}
  - {x: -0.000000013197265, y: -1.1067}
  - {x: 0, y: 0}
  - {x: -0.78255486, y: -0.78255516}
  - {x: 0.000000013197265, y: -1.1067}
  - {x: 0, y: 0}
  - {x: 0.78255486, y: -0.78255516}
  - {x: -0.78255486, y: -0.78255516}
  - {x: 0, y: 0}
  - {x: -1.1067, y: 0}
  - {x: 0.78255486, y: -0.78255516}
  - {x: 0, y: 0}
  - {x: 1.1067, y: 0}
  _uv3: []
  _uv4: []
  _tangents: []
  _sharedIndicesUV: []
  _colors:
  - {r: 1, g: 1, b: 1, a: 1}
  - {r: 1, g: 1, b: 1, a: 1}
  - {r: 1, g: 1, b: 1, a: 1}
  - {r: 1, g: 1, b: 1, a: 1}
  - {r: 1, g: 1, b: 1, a: 1}
  - {r: 1, g: 1, b: 1, a: 1}
  - {r: 1, g: 1, b: 1, a: 1}
  - {r: 1, g: 1, b: 1, a: 1}
  - {r: 1, g: 1, b: 1, a: 1}
  - {r: 1, g: 1, b: 1, a: 1}
  - {r: 1, g: 1, b: 1, a: 1}
  - {r: 1, g: 1, b: 1, a: 1}
  - {r: 1, g: 1, b: 1, a: 1}
  - {r: 1, g: 1, b: 1, a: 1}
  - {r: 1, g: 1, b: 1, a: 1}
  - {r: 1, g: 1, b: 1, a: 1}
  - {r: 1, g: 1, b: 1, a: 1}
  - {r: 1, g: 1, b: 1, a: 1}
  - {r: 1, g: 1, b: 1, a: 1}
  - {r: 1, g: 1, b: 1, a: 1}
  - {r: 1, g: 1, b: 1, a: 1}
  - {r: 1, g: 1, b: 1, a: 1}
  - {r: 1, g: 1, b: 1, a: 1}
  - {r: 1, g: 1, b: 1, a: 1}
  - {r: 1, g: 1, b: 1, a: 1}
  - {r: 1, g: 1, b: 1, a: 1}
  - {r: 1, g: 1, b: 1, a: 1}
  - {r: 1, g: 1, b: 1, a: 1}
  - {r: 1, g: 1, b: 1, a: 1}
  - {r: 1, g: 1, b: 1, a: 1}
  - {r: 1, g: 1, b: 1, a: 1}
  - {r: 1, g: 1, b: 1, a: 1}
  - {r: 1, g: 1, b: 1, a: 1}
  - {r: 1, g: 1, b: 1, a: 1}
  - {r: 1, g: 1, b: 1, a: 1}
  - {r: 1, g: 1, b: 1, a: 1}
  - {r: 1, g: 1, b: 1, a: 1}
  - {r: 1, g: 1, b: 1, a: 1}
  - {r: 1, g: 1, b: 1, a: 1}
  - {r: 1, g: 1, b: 1, a: 1}
  - {r: 1, g: 1, b: 1, a: 1}
  - {r: 1, g: 1, b: 1, a: 1}
  - {r: 1, g: 1, b: 1, a: 1}
  - {r: 1, g: 1, b: 1, a: 1}
  - {r: 1, g: 1, b: 1, a: 1}
  - {r: 1, g: 1, b: 1, a: 1}
  - {r: 1, g: 1, b: 1, a: 1}
  - {r: 1, g: 1, b: 1, a: 1}
  - {r: 1, g: 1, b: 1, a: 1}
  - {r: 1, g: 1, b: 1, a: 1}
  - {r: 1, g: 1, b: 1, a: 1}
  - {r: 1, g: 1, b: 1, a: 1}
  - {r: 1, g: 1, b: 1, a: 1}
  - {r: 1, g: 1, b: 1, a: 1}
  - {r: 1, g: 1, b: 1, a: 1}
  - {r: 1, g: 1, b: 1, a: 1}
  - {r: 1, g: 1, b: 1, a: 1}
  - {r: 1, g: 1, b: 1, a: 1}
  - {r: 1, g: 1, b: 1, a: 1}
  - {r: 1, g: 1, b: 1, a: 1}
  - {r: 1, g: 1, b: 1, a: 1}
  - {r: 1, g: 1, b: 1, a: 1}
  - {r: 1, g: 1, b: 1, a: 1}
  - {r: 1, g: 1, b: 1, a: 1}
  - {r: 1, g: 1, b: 1, a: 1}
  - {r: 1, g: 1, b: 1, a: 1}
  - {r: 1, g: 1, b: 1, a: 1}
  - {r: 1, g: 1, b: 1, a: 1}
  - {r: 1, g: 1, b: 1, a: 1}
  - {r: 1, g: 1, b: 1, a: 1}
  - {r: 1, g: 1, b: 1, a: 1}
  - {r: 1, g: 1, b: 1, a: 1}
  - {r: 1, g: 1, b: 1, a: 1}
  - {r: 1, g: 1, b: 1, a: 1}
  - {r: 1, g: 1, b: 1, a: 1}
  - {r: 1, g: 1, b: 1, a: 1}
  - {r: 1, g: 1, b: 1, a: 1}
  - {r: 1, g: 1, b: 1, a: 1}
  - {r: 1, g: 1, b: 1, a: 1}
  - {r: 1, g: 1, b: 1, a: 1}
  userCollisions: 0
  isSelectable: 1
  unwrapParameters:
    hardAngle: 88
    packMargin: 4
    angleError: 8
    areaError: 15
  asset_guid: 
  dontDestroyMeshOnDelete: 0
  m_selectedFaces: 
  m_SelectedEdges: []
  m_selectedTriangles: 
--- !u!64 &345501919950569667
MeshCollider:
  m_ObjectHideFlags: 0
  m_CorrespondingSourceObject: {fileID: 0}
  m_PrefabInstance: {fileID: 0}
  m_PrefabAsset: {fileID: 0}
  m_GameObject: {fileID: 345501919950569676}
  m_Material: {fileID: 0}
  m_IsTrigger: 0
  m_Enabled: 1
  serializedVersion: 3
  m_Convex: 0
  m_CookingOptions: 14
  m_Mesh: {fileID: 0}
